[{"id":"8","logo":"https://upload.wikimedia.org/wikipedia/commons/thumb/5/51/Logo_diario_AS.svg/1024px-Logo_diario_AS.svg.png","navBackground":"#55595c","color": "#ffffff","name":"Enrollment NO PCI PRUEBA"},
{"id":"22","logo":"https://d2e8pqed1httqt.cloudfront.net/cabify.png","navBackground":"#55595c","color": "#ffffff","name":"Merchant Swagger"},
{"id":"239","logo":"https://res.cloudinary.com/crunchbase-production/image/upload/c_lpad,h_170,w_170,f_auto,b_white,q_auto:eco,dpr_1/olc4x6ea4qy3j8nhry0r","navBackground":"#55595c","color": "#ffffff","name":"WP test"},
{"id":"240","logo":"https://pbs.twimg.com/profile_images/1267837925250777088/CUDWHrq2_400x400.jpg","navBackground":"#55595c","color": "#ffffff","name":"Sports World"},
{"id":"884","logo":"https://i.pinimg.com/originals/7a/b0/2a/7ab02ae6078aea3ebcb59ab42836e4fa.png","navBackground":"#55595c","color": "#ffffff","name":"Merchant pruebas PS"},
{"id":"324050","logo":"https://d2e8pqed1httqt.cloudfront.net/amazon.png","navBackground":"#55595c","color": "#ffffff","name":"Amazon"},
{"id":"324051","logo":"https://d2e8pqed1httqt.cloudfront.net/cabify.png","navBackground":"#55595c","color": "#ffffff","name":"Cabify"},
{"id":"324052","logo":"https://d2e8pqed1httqt.cloudfront.net/airbnb.png","navBackground":"#55595c","color": "#ffffff","name":"Airbnb"},
{"id":"324053","logo":"https://d2e8pqed1httqt.cloudfront.net/uber.png","navBackground":"#55595c","color": "#ffffff","name":"Uber"},
{"id":"324054","logo":"https://d2e8pqed1httqt.cloudfront.net/mrjeff.png","navBackground":"#55595c","color": "#ffffff","name":"Mr Jeff"},
{"id":"324055","logo":"https://d2e8pqed1httqt.cloudfront.net/hbo.png","navBackground":"#55595c","color": "#ffffff","name":"HBO"},
{"id":"324056","logo":"https://d2e8pqed1httqt.cloudfront.net/spotify.png","navBackground":"#55595c","color": "#ffffff","name":"Spotify"},
{"id":"324057","logo":"https://d2e8pqed1httqt.cloudfront.net/tidal.png","navBackground":"#55595c","color": "#ffffff","name":"Tidal"},
{"id":"324058","logo":"https://d2e8pqed1httqt.cloudfront.net/rappi.png","navBackground":"#55595c","color": "#ffffff","name":"Rappi"},
{"id":"324059","logo":"https://cd-logos.s3.amazonaws.com/mercadolibre.png","navBackground":"#55595c","color": "#ffffff","name":"Mercadolibre"},
{"id":"324060","logo":"https://cd-logos.s3.amazonaws.com/ifood.png","navBackground":"#FF001B","color":"#FF001B","name":"Ifood"},
{"id":"324062","logo":"https://cd-logos.s3.amazonaws.com/outback.jfif","navBackground":"#812122","color":"#812122","name":"Outback"},
{"id":"324063","logo":"https://cd-logos.s3.amazonaws.com/ifood.png","navBackground":"#55595c","color": "#ffffff","name":"Ifood"},
{"id":"324064","logo":"https://cd-logos.s3.amazonaws.com/outback.jfif","navBackground":"#55595c","color": "#ffffff","name":"Outback"},
{"id":"424001","logo":"https://d2e8pqed1httqt.cloudfront.net/cabify.png","navBackground":"#55595c","color": "#ffffff","name":"Cabify"},
{"id":"424002","logo":"https://d2e8pqed1httqt.cloudfront.net/mrjeff.png","navBackground":"#55595c","color": "#ffffff","name":"Mr Jeff"},
{"id":"424003","logo":"https://d2e8pqed1httqt.cloudfront.net/amazon.png","navBackground":"#FF9900","color":"#FF9900","name":"Amazon"},
{"id":"424004","logo":"https://d2e8pqed1httqt.cloudfront.net/uber.png","navBackground":"#55595c","color": "#ffffff","name":"Uber"},
{"id":"424005","logo":"https://d2e8pqed1httqt.cloudfront.net/airbnb.png","navBackground":"#55595c","color": "#ffffff","name":"Airbnb"},
{"id":"424006","logo":"https://d2e8pqed1httqt.cloudfront.net/iberia.png","navBackground":"#55595c","color": "#ffffff","name":"Iberia"},
{"id":"424007","logo":"https://d2e8pqed1httqt.cloudfront.net/waylet.png","navBackground":"#55595c","color": "#ffffff","name":"Waylet"},
{"id":"424008","logo":"https://d2e8pqed1httqt.cloudfront.net/linio.png","navBackground":"#55595c","color": "#ffffff","name":"Linio"},
{"id":"424009","logo":"https://d2e8pqed1httqt.cloudfront.net/tidal.png","navBackground":"#55595c","color": "#ffffff","name":"CornerShop"},
{"id":"424010","logo":"https://d2e8pqed1httqt.cloudfront.net/birchbox.png","navBackground":"#55595c","color": "#ffffff","name":"Birchbox"},
{"id":"424011","logo":"https://d2e8pqed1httqt.cloudfront.net/blim.png","navBackground":"#55595c","color": "#ffffff","name":"Blim"},
{"id":"424012","logo":"https://d2e8pqed1httqt.cloudfront.net/elcorteingles.png","navBackground":"#55595c","color": "#ffffff","name":"El Corte Ingles"},
{"id":"424013","logo":"https://d2e8pqed1httqt.cloudfront.net/uber+eats.png","navBackground":"#55595c","color": "#ffffff","name":"Uber Eats"},
{"id":"424014","logo":"https://d2e8pqed1httqt.cloudfront.net/deliveroo.png","navBackground":"#55595c","color": "#ffffff","name":"Deliveroo"},
{"id":"424015","logo":"https://d2e8pqed1httqt.cloudfront.net/tidal.png","navBackground":"#55595c","color": "#ffffff","name":"TIDAL"},
{"id":"424018","logo":"https://cd-logos.s3.amazonaws.com/Liverpool+logo.png","navBackground":"#55595c","color": "#ffffff","name":"Liverpool"},
{"id":"424019","logo":"https://cd-logos.s3.amazonaws.com/logo+uhuu.png","navBackground":"#55595c","color": "#ffffff","name":"Uhuu"},
{"id":"424020","logo":"https://cd-logos.s3.amazonaws.com/mercadolibre.png","navBackground":"#55595c","color": "#ffffff","name":"Mercadolibre"},
{"id":"424022","logo":"https://cd-logos.s3.amazonaws.com/claroShop.png","navBackground":"#55595c","color": "#ffffff","name":"Claro Shop"},
{"id":"424023","logo":"https://cd-logos.s3.amazonaws.com/pase.png","navBackground":"#55595c","color": "#ffffff","name":"PASE"},
{"id":"424024","logo":"https://cd-logos.s3.amazonaws.com/pase.png","navBackground":"#55595c","color": "#ffffff","name":"PASE"},
{"id":"424025","logo":"https://cd-logos.s3.amazonaws.com/alsa.png","navBackground":"#55595c","color": "#ffffff","name":"Alsa"},
{"id":"424027","logo":"https://cd-logos.s3.amazonaws.com/volaris.png","navBackground":"#55595c","color": "#ffffff","name":"Volaris"},
{"id":"424028","logo":"https://www.academiaalcantara.es/wp-content/uploads/2019/06/PRESTASHOP-IMG-WEB5.jpg","navBackground":"#55595c","color": "#ffffff","name":"PrestaShop"},
{"id":"424029","logo":"https://cd-example-cards.s3.eu-west-1.amazonaws.com/walmart.png","navBackground":"#55595c","color": "#ffffff","name":"Walmart"},
{"id":"424031","logo":"https://cd-logos.s3.amazonaws.com/telcel.jpg","navBackground":"#55595c","color": "#ffffff","name":"Telcel"},
{"id":"424034","logo":"https://brandemia.org/contenido/subidas/2021/08/11-falabella-com-1200x670.jpg","navBackground":"#55595c","color": "#ffffff","name":"Falabella"},
{"id":"424037","logo":"https://d2e8pqed1httqt.cloudfront.net/cabify.png","navBackground":"#55595c","color": "#ffffff","name":"Merchant Swagger"},
{"id":"424043","logo":"https://pbs.twimg.com/profile_images/1267837925250777088/CUDWHrq2_400x400.jpg","navBackground":"#55595c","color": "#ffffff","name":"Sports World"},
{"id":"424044","logo":"https://d2e8pqed1httqt.cloudfront.net/hbo.png","navBackground":"#55595c","color": "#ffffff","name":"correos"},
{"id":"424045","logo":"https://cd-logos.s3.amazonaws.com/vinoteca.png","navBackground":"#55595c","color": "#ffffff","name":"Vinoteca"},
{"id":"424046","logo":"https://cd-logos.s3.amazonaws.com/bestday.png","navBackground":"#55595c","color": "#ffffff","name":"Best Day"},
{"id":"424047","logo":"https://cd-logos.s3.amazonaws.com/bestDay.png","navBackground":"#55595c","color": "#ffffff","name":"Travel.com"},
{"id":"424048","logo":"https://cd-logos.s3.amazonaws.com/checkintotravel.png","navBackground":"#55595c","color": "#ffffff","name":"Ch2Travel"},
{"id":"424049","logo":"https://cd-logos.s3.amazonaws.com/bestday.png","navBackground":"#55595c","color": "#ffffff","name":"Best Day"},
{"id":"424050","logo":"https://cd-logos.s3.amazonaws.com/pizzahut.png","navBackground":"#55595c","color": "#ffffff","name":"Pizza Hut"},
{"id":"424051","logo":"https://cd-logos.s3.amazonaws.com/bookingLogo.jpg","navBackground":"#55595c","color": "#ffffff","name":"Booking"},
{"id":"424053","logo":"https://cd-logos.s3.amazonaws.com/hotelbeds.png","navBackground":"#55595c","color": "#ffffff","name":"Hotelbeds"},
{"id":"424054","logo":"https://cd-logos.s3.amazonaws.com/waylet.png","navBackground":"#55595c","color": "#ffffff","name":"Waylet"},
{"id":"424055","logo":"https://cd-logos.s3.amazonaws.com/movistar.png","navBackground":"#55595c","color": "#ffffff","name":"Movistar"},
{"id":"424056","logo":"https://cd-logos.s3.amazonaws.com/ikea.png","navBackground":"#55595c","color": "#ffffff","name":"Ikea"},
{"id":"424057","logo":"https://cd-logos.s3.amazonaws.com/vueling.png","navBackground":"#55595c","color": "#ffffff","name":"Vueling"},
{"id":"524000","logo":"https://d2e8pqed1httqt.cloudfront.net/mrjeff.png","navBackground":"#55595c","color": "#ffffff","name":"Mr Jeff"},
{"id":"524001","logo":"https://d2e8pqed1httqt.cloudfront.net/amazon.png","navBackground":"#55595c","color": "#ffffff","name":"Amazon"},
{"id":"524002","logo":"https://d2e8pqed1httqt.cloudfront.net/airbnb.png","navBackground":"#55595c","color": "#ffffff","name":"Airbnb"},
{"id":"524003","logo":"https://d2e8pqed1httqt.cloudfront.net/iberia.png","navBackground":"#55595c","color": "#ffffff","name":"Iberia"},
{"id":"524004","logo":"https://d2e8pqed1httqt.cloudfront.net/linio.png","navBackground":"#55595c","color": "#ffffff","name":"Linio"},
{"id":"524005","logo":"https://d2e8pqed1httqt.cloudfront.net/cabify.png","navBackground":"#55595c","color": "#ffffff","name":"Cabify"},
{"id":"524006","logo":"https://d2e8pqed1httqt.cloudfront.net/uber.png","navBackground":"#55595c","color": "#ffffff","name":"Uber"},
{"id":"524007","logo":"https://d2e8pqed1httqt.cloudfront.net/tidal.png","navBackground":"#55595c","color": "#ffffff","name":"Tidal"},
{"id":"524008","logo":"https://d2e8pqed1httqt.cloudfront.net/cornershop.png","navBackground":"#55595c","color": "#ffffff","name":"Cornershop"},
{"id":"524009","logo":"https://cd-logos.s3.amazonaws.com/rappi.png","navBackground":"#55595c","color": "#ffffff","name":"Rappi"},
{"id":"524010","logo":"https://d2e8pqed1httqt.cloudfront.net/uber+eats.png","navBackground":"#55595c","color": "#ffffff","name":"Uber Eats"},
{"id":"524011","logo":"https://d2e8pqed1httqt.cloudfront.net/spotify.png","navBackground":"#55595c","color": "#ffffff","name":"Spotify"},
{"id":"524015","logo":"https://d2e8pqed1httqt.cloudfront.net/disneyplus.png","navBackground":"#55595c","color": "#ffffff","name":"Disney+"},
{"id":"524018","logo":"https://d2e8pqed1httqt.cloudfront.net/iberia.png","navBackground":"#55595c","color": "#ffffff","name":"Iberia"},
{"id":"524019","logo":"https://d2e8pqed1httqt.cloudfront.net/birchbox.png","navBackground":"#55595c","color": "#ffffff","name":"Birchbox"},
{"id":"524020","logo":"https://d2e8pqed1httqt.cloudfront.net/hbo.png","navBackground":"#55595c","color": "#ffffff","name":"HBO"},
{"id":"524022","logo":"https://cd-logos.s3.amazonaws.com/daviplata.png","navBackground":"#55595c","color": "#ffffff","name":"Daviplata"},
{"id":"524023","logo":"https://cd-logos.s3.amazonaws.com/micopiloto.png","navBackground":"#55595c","color": "#ffffff","name":"Mi Copiloto"},
{"id":"524024","logo":"https://cd-logos.s3.amazonaws.com/copec.jpg","navBackground":"#55595c","color": "#ffffff","name":"Copec"},
{"id":"524026","logo":"https://cd-logos.s3.amazonaws.com/forum.jfif","navBackground":"#55595c","color": "#ffffff","name":"Forum"},
{"id":"524027","logo":"https://cd-logos.s3.amazonaws.com/kueski.png","navBackground":"#55595c","color": "#ffffff","name":"Kueski"},
{"id":"550001","logo":"https://www.hostlogos.com/xxxx.gif","navBackground":"#55595c","color": "#ffffff","name":""},
{"id":"624001","logo":"https://d2e8pqed1httqt.cloudfront.net/cabify.png","navBackground":"#55595c","color": "#ffffff","name":"Cabify"},
{"id":"624002","logo":"https://d2e8pqed1httqt.cloudfront.net/amazon.png","navBackground":"#55595c","color": "#ffffff","name":"Amazon"},
{"id":"624003","logo":"https://d2e8pqed1httqt.cloudfront.net/tidal.png","navBackground":"#55595c","color": "#ffffff","name":"CornerShop"},
{"id":"624004","logo":"https://d2e8pqed1httqt.cloudfront.net/uber+eats.png","navBackground":"#55595c","color": "#ffffff","name":"Uber Eats"},
{"id":"624005","logo":"https://cd-logos.s3.amazonaws.com/bestday.png","navBackground":"#55595c","color": "#ffffff","name":"Best Day"},
{"id":"624006","logo":"https://cd-logos.s3.amazonaws.com/bestDay.png","navBackground":"#55595c","color": "#ffffff","name":"Travel.com"},
{"id":"624007","logo":"https://cd-logos.s3.amazonaws.com/checkintotravel.png","navBackground":"#55595c","color": "#ffffff","name":"Ch2Travel"},
{"id":"624032","logo":"https://cd-logos.s3.amazonaws.com/paneEnvia.png","navBackground":"#55595c","color": "#ffffff","name":"Pane Envia"},
{"id":"624033","logo":"https://cd-example-cards.s3.eu-west-1.amazonaws.com/walmart.png","navBackground":"#55595c","color": "#ffffff","name":"Walmart"},
{"id":"624041","logo":"https://cd-logos.s3.amazonaws.com/pase.png","navBackground":"#55595c","color": "#ffffff","name":"PASE"},
{"id":"624042","logo":"https://cd-logos.s3.amazonaws.com/izzi.png","navBackground":"#55595c","color": "#ffffff","name":"Izzi"},
{"id":"624043","logo":"https://cd-logos.s3.amazonaws.com/pizzahut.png","navBackground":"#55595c","color": "#ffffff","name":"Pizza Hut"},
{"id":"624044","logo":"https://cd-logos.s3.amazonaws.com/cafeselecto.png","navBackground":"#55595c","color": "#ffffff","name":"Cafe Origen Selecto"},
{"id":"624045","logo":"https://cd-logos.s3.amazonaws.com/officedepot.png","navBackground":"#55595c","color": "#ffffff","name":"Office Depot"},
{"id":"624046","logo":"https://cd-logos.s3.amazonaws.com/claroShop.png","navBackground":"#55595c","color": "#ffffff","name":"Claro Shop"},
{"id":"624048","logo":"https://d2e8pqed1httqt.cloudfront.net/uber.png","navBackground":"#55595c","color": "#ffffff","name":"Uber"},
{"id":"624049","logo":"https://www.elpalaciodehierro.com/","navBackground":"#f0bb21","color": "#ffffff","name":"Palacio de Hierro"},
{"id":"724010","logo":"https://d2e8pqed1httqt.cloudfront.net/birchbox.png","navBackground":"#55595c","color": "#ffffff","name":"Birchbox"},
{"id":"724011","logo":"https://d2e8pqed1httqt.cloudfront.net/hbo.png","navBackground":"#55595c","color": "#ffffff","name":"HBO"},
{"id":"724012","logo":"https://d2e8pqed1httqt.cloudfront.net/elcorteingles.png","navBackground":"#55595c","color": "#ffffff","name":"El Corte Ingles"},
{"id":"724048","logo":"https://www.panpanrico.es/assets/themes/panrico/dist/images/logo-v2.png","navBackground":"#55595c","color": "#ffffff","name":"panrico"},
{"id":"724049","logo":"https://www.duracelldirect.es/skin002/i/logo/duracelldirect.png","navBackground":"#55595c","color": "#ffffff","name":"duracell"},
{"id":"724050","logo":"https://www.free-now.com/fileadmin/_processed_/4/9/csm_Icon_Secure_sta_200x200_b6a9a75098.png","navBackground":"#55595c","color": "#ffffff","name":"myTaxi"},
{"id":"724051","logo":"https://www.repsol.es/content/dam/repsol-ecommerce/M-L.png.transform/rp-rendition-xs/image.png","navBackground":"#55595c","color": "#ffffff","name":"repsol"},
{"id":"724052","logo":"https://integrado.carddynamics.io/assets/images/logo-color.png","navBackground":"#55595c","color": "#ffffff","name":"PROTECHPLUS"},
{"id":"824001","logo":"https://cd-logos.s3.amazonaws.com/mit.png","navBackground":"#55595c","color": "#ffffff","name":"Merchant MIT 1"},
{"id":"824002","logo":"https://cd-logos.s3.amazonaws.com/mit.png","navBackground":"#55595c","color": "#ffffff","name":"Merchant MIT 2"},
{"id":"824003","logo":"https://cd-logos.s3.amazonaws.com/mit.png","navBackground":"#55595c","color": "#ffffff","name":"Merchant MIT 3"},
{"id":"824004","logo":"https://cd-logos.s3.amazonaws.com/mit.png","navBackground":"#55595c","color": "#ffffff","name":"Merchant MIT 4"},
{"id":"824005","logo":"https://cd-logos.s3.amazonaws.com/mit.png","navBackground":"#55595c","color": "#ffffff","name":"Merchant MIT Button"},
{"id":"824009","logo":"https://backoffice.carddynamics.io/public/merchant-add","navBackground":"#55595c","color": "#ffffff","name":"werewrw"},
{"id":"824011","logo":"https://cd-logos.s3.amazonaws.com/telmex.png","navBackground":"#55595c","color": "#ffffff","name":"Telmex"},
{"id":"824012","logo":"https://integrado.carddynamics.io/assets/images/logo-color.png","navBackground":"#55595c","color": "#ffffff","name":"ETERNIAN by Idoia"},
{"id":"824013","logo":"https://www.elcorteingles.es/centroscomerciales/uploads/service/logo/1117/Logo%20Financiera%20ECI.jpeg","navBackground":"#00843D","color":"#ffffff","name":"FECI"},
{"id":"824015","logo":"https://www.unef.es/data/usuarios/USR-1004/asf-20220707085501.jpg","navBackground":"#8AB1D8","color":"#ffffff","name":"Abanca Servicios Financieros"},
{"id":"824017","logo":"https://cd-logos.s3.amazonaws.com/pizzahut.png","navBackground":"#55595c","color": "#ffffff","name":"pizza2"},
{"id":"824019","logo":"https://cd-logos.s3.amazonaws.com/viajesECI.png","navBackground":"#55595c","color": "#ffffff","name":"Viajes ECI"},
{"id":"824020","logo":"https://cd-logos.s3.amazonaws.com/bookingLogo.jpg","navBackground":"#55595c","color": "#ffffff","name":"Booking"},
{"id":"824021","logo":"https://cd-logos.s3.amazonaws.com/hotelbeds.png","navBackground":"#55595c","color": "#ffffff","name":"Hotelbeds"},
{"id":"824022","logo":"https://d2e8pqed1httqt.cloudfront.net/hbo.png","navBackground":"#55595c","color": "#ffffff","name":"comerciodemocampos"},
{"id":"824023","logo":"https://d2e8pqed1httqt.cloudfront.net/blim.png","navBackground":"#55595c","color": "#ffffff","name":"boton campos 2 test"},
{"id":"824024","logo":"https://d2e8pqed1httqt.cloudfront.net/linio.png","navBackground":"#55595c","color": "#ffffff","name":"test age 2"},
{"id":"824025","logo":"https://d2e8pqed1httqt.cloudfront.net/rappi.png","navBackground":"#55595c","color": "#ffffff","name":"rappi fixx"},
{"id":"824026","logo":"https://cd-logos.s3.amazonaws.com/izzi.png","navBackground":"#55595c","color": "#ffffff","name":"Izzi"},
{"id":"824027","logo":"https://cd-logos.s3.amazonaws.com/telcel.png","navBackground":"#55595c","color": "#ffffff","name":"Telcel"},
{"id":"824028","logo":"https://cd-logos.s3.amazonaws.com/telmex.png","navBackground":"#55595c","color": "#ffffff","name":"Telmex"},
{"id":"824029","logo":"https://cd-logos.s3.amazonaws.com/megacable.png","navBackground":"#55595c","color": "#ffffff","name":"Megacable"},
{"id":"824030","logo":"https://cd-logos.s3.amazonaws.com/AXA.png","navBackground":"#55595c","color": "#ffffff","name":"AXA"},
{"id":"824031","logo":"https://cd-logos.s3.amazonaws.com/izzi.png","navBackground":"#55595c","color": "#ffffff","name":"Izzi MX"},
{"id":"824037","logo":"https://d2e8pqed1httqt.cloudfront.net/hbo.png","navBackground":"#55595c","color": "#ffffff","name":"testjuevess"},
{"id":"824039","logo":"https://cd-logos.s3.amazonaws.com/vespucio.png","navBackground":"#55595c","color": "#ffffff","name":"teest merchant"},
{"id":"824042","logo":"https://cd-logos.s3.amazonaws.com/alsa.png","navBackground":"#55595c","color": "#ffffff","name":"test visibilidad"},
{"id":"824043","logo":"https://upload.wikimedia.org/wikipedia/commons/6/69/Logo_de_Claro_Shop.svg","navBackground":"#55595c","color": "#ffffff","name":"Claroshop"},
{"id":"824044","logo":"https://upload.wikimedia.org/wikipedia/commons/6/69/Logo_de_Claro_Shop.svg","navBackground":"#55595c","color": "#ffffff","name":"Claroshop"},
{"id":"824045","logo":"https://upload.wikimedia.org/wikipedia/commons/6/69/Logo_de_Claro_Shop.svgq","navBackground":"#55595c","color": "#ffffff","name":"Claroshop"},
{"id":"824046","logo":"https://cd-logos.s3.amazonaws.com/mit.png","navBackground":"#55595c","color": "#ffffff","name":"merchant mit test 2023"},
{"id":"824047","logo":"https://upload.wikimedia.org/wikipedia/commons/b/b6/Logo-Imagen%281%29.jpg","navBackground":"#55595c","color": "#ffffff","name":"Prueba Sl"},
{"id":"824048","logo":"https://upload.wikimedia.org/wikipedia/commons/b/b6/Logo-Imagen%281%29.jpg","navBackground":"#55595c","color": "#ffffff","name":"Empresa falsa"},
{"id":"824049","logo":"https://cd-logos.s3.amazonaws.com/santanderConsumer.png","navBackground":"#E30613","color":"#E30613","name":"SantanderConsumer"},
{"id":"824055","logo":"https://cd-logos.s3.amazonaws.com/caixaConsumer.png","navBackground":"#75C9EE","color":"#75C9EE","name":"Caixa Consumer"},
{"id":"1107","logo":"https://cd-logos.s3.amazonaws.com/caixaConsumer.png","navBackground":"#75C9EE","color":"#75C9EE","name":"Caixa Consumer"},
{"id":"824056","logo":"https://cd-logos.s3.amazonaws.com/ikeaVisa.png","navBackground":"#75C9EE","color":"#75C9EE","name":"Caixa Consumer"},
{"id":"824058","logo":"https://cd-logos.s3.amazonaws.com/reciclosLogo.png","navBackground":"#ffd800","color":"#ffd800","name":"Reciclos"},
{"id":"824062","logo":"https://cd-logos.s3.amazonaws.com/binance.png","navBackground":"#f3c426","color":"#f3c426","name":"Binance"}
]